A_MCU/testbench/7_testbench_rv32i_compliance/sim/elaboration.log
Vivado Tcl Batch mode RV32E simulation starts...

****** Vivado v2024.2 (64-bit)
  **** SW Build 5239630 on Fri Nov 08 22:34:34 MST 2024
  **** IP Build 5239520 on Sun Nov 10 16:12:51 MST 2024
  **** SharedData Build 5239561 on Fri Nov 08 14:39:27 MST 2024
  **** Start of session at: Sat May 23 01:37:27 2026
    ** Copyright 1986-2022 Xilinx, Inc. All Rights Reserved.
    ** Copyright 2022-2024 Advanced Micro Devices, Inc. All Rights Reserved.

source run_sim_e.tcl -notrace
[Tcl] 1. 임시 시뮬레이션 프로젝트 생성 중...
[Tcl] 2. 소스 파일 및 테스트벤치 추가 중...
[Tcl] 3. Top 모듈 지정...
[Tcl] 4. 시뮬레이션 설정...
[Tcl] 5. 컴파일 및 시뮬레이션 실행!
Command: launch_simulation 
INFO: [Vivado 12-12493] Simulation top is 'tb_rv32e_compliance'
INFO: [Vivado 12-5682] Launching behavioral simulation in '/home/hosung/Ho/MPW/MPW_workspace/Bit_Up/A_MCU/testbench/7_testbench_rv32i_compliance/sim/sim_workspace/sim_project.sim/sim_1/behav/xsim'
INFO: [SIM-utils-51] Simulation object is 'sim_1'
INFO: [SIM-utils-72] Using boost library from '/home/hosung/tools/xilinx/Vivado/2024.2/tps/boost_1_72_0'
INFO: [SIM-utils-54] Inspecting design source files for 'tb_rv32e_compliance' in fileset 'sim_1'...
INFO: [USF-XSim-97] Finding global include files...
INFO: [USF-XSim-98] Fetching design files from 'sim_1'...
INFO: [USF-XSim-2] XSim::Compile design
INFO: [USF-XSim-61] Executing 'COMPILE and ANALYZE' step in '/home/hosung/Ho/MPW/MPW_workspace/Bit_Up/A_MCU/testbench/7_testbench_rv32i_compliance/sim/sim_workspace/sim_project.sim/sim_1/behav/xsim'
xvlog --incr --relax -prj tb_rv32e_compliance_vlog.prj
INFO: [VRFC 10-2263] Analyzing Verilog file "/home/hosung/Ho/MPW/MPW_workspace/Bit_Up/A_MCU/src/rtl/my_mcu_top.v" into library xil_defaultlib
INFO: [VRFC 10-311] analyzing module my_mcu_top
INFO: [VRFC 10-2263] Analyzing Verilog file "/home/hosung/Ho/MPW/MPW_workspace/Bit_Up/A_MCU/src/rtl/offchip_mem_bridge.v" into library xil_defaultlib
INFO: [VRFC 10-311] analyzing module offchip_mem_bridge
INFO: [VRFC 10-2263] Analyzing Verilog file "/home/hosung/Ho/MPW/MPW_workspace/Bit_Up/A_MCU/src/rtl/serv/serv_aligner.v" into library xil_defaultlib
INFO: [VRFC 10-311] analyzing module serv_aligner
INFO: [VRFC 10-2263] Analyzing Verilog file "/home/hosung/Ho/MPW/MPW_workspace/Bit_Up/A_MCU/src/rtl/serv/serv_alu.v" into library xil_defaultlib
INFO: [VRFC 10-311] analyzing module serv_alu
INFO: [VRFC 10-2263] Analyzing Verilog file "/home/hosung/Ho/MPW/MPW_workspace/Bit_Up/A_MCU/src/rtl/serv/serv_bufreg.v" into library xil_defaultlib
INFO: [VRFC 10-311] analyzing module serv_bufreg
INFO: [VRFC 10-2263] Analyzing Verilog file "/home/hosung/Ho/MPW/MPW_workspace/Bit_Up/A_MCU/src/rtl/serv/serv_bufreg2.v" into library xil_defaultlib
INFO: [VRFC 10-311] analyzing module serv_bufreg2
INFO: [VRFC 10-2263] Analyzing Verilog file "/home/hosung/Ho/MPW/MPW_workspace/Bit_Up/A_MCU/src/rtl/serv/serv_compdec.v" into library xil_defaultlib
INFO: [VRFC 10-311] analyzing module serv_compdec
INFO: [VRFC 10-2263] Analyzing Verilog file "/home/hosung/Ho/MPW/MPW_workspace/Bit_Up/A_MCU/src/rtl/serv/serv_csr.v" into library xil_defaultlib
INFO: [VRFC 10-311] analyzing module serv_csr
INFO: [VRFC 10-2263] Analyzing Verilog file "/home/hosung/Ho/MPW/MPW_workspace/Bit_Up/A_MCU/src/rtl/serv/serv_ctrl.v" into library xil_defaultlib
INFO: [VRFC 10-311] analyzing module serv_ctrl
INFO: [VRFC 10-2263] Analyzing Verilog file "/home/hosung/Ho/MPW/MPW_workspace/Bit_Up/A_MCU/src/rtl/serv/serv_debug.v" into library xil_defaultlib
INFO: [VRFC 10-311] analyzing module serv_debug
INFO: [VRFC 10-2263] Analyzing Verilog file "/home/hosung/Ho/MPW/MPW_workspace/Bit_Up/A_MCU/src/rtl/serv/serv_decode.v" into library xil_defaultlib
INFO: [VRFC 10-311] analyzing module serv_decode
INFO: [VRFC 10-2263] Analyzing Verilog file "/home/hosung/Ho/MPW/MPW_workspace/Bit_Up/A_MCU/src/rtl/serv/serv_immdec.v" into library xil_defaultlib
INFO: [VRFC 10-311] analyzing module serv_immdec
INFO: [VRFC 10-2263] Analyzing Verilog file "/home/hosung/Ho/MPW/MPW_workspace/Bit_Up/A_MCU/src/rtl/serv/serv_mem_if.v" into library xil_defaultlib
INFO: [VRFC 10-311] analyzing module serv_mem_if
INFO: [VRFC 10-2263] Analyzing Verilog file "/home/hosung/Ho/MPW/MPW_workspace/Bit_Up/A_MCU/src/rtl/serv/serv_rf_if.v" into library xil_defaultlib
INFO: [VRFC 10-311] analyzing module serv_rf_if
INFO: [VRFC 10-2263] Analyzing Verilog file "/home/hosung/Ho/MPW/MPW_workspace/Bit_Up/A_MCU/src/rtl/serv/serv_rf_ram_if.v" into library xil_defaultlib
INFO: [VRFC 10-311] analyzing module serv_rf_ram_if
INFO: [VRFC 10-2263] Analyzing Verilog file "/home/hosung/Ho/MPW/MPW_workspace/Bit_Up/A_MCU/src/rtl/serv/serv_state.v" into library xil_defaultlib
INFO: [VRFC 10-311] analyzing module serv_state
INFO: [VRFC 10-2263] Analyzing Verilog file "/home/hosung/Ho/MPW/MPW_workspace/Bit_Up/A_MCU/src/rtl/serv/serv_top.v" into library xil_defaultlib
INFO: [VRFC 10-311] analyzing module serv_top
WARNING: [VRFC 10-3380] identifier 'alu_rd_sel' is used before its declaration [/home/hosung/Ho/MPW/MPW_workspace/Bit_Up/A_MCU/src/rtl/serv/serv_top.v:147]
INFO: [VRFC 10-2263] Analyzing Verilog file "/home/hosung/Ho/MPW/MPW_workspace/Bit_Up/A_MCU/testbench/7_testbench_rv32i_compliance/tb_rv32e_compliance.v" into library xil_defaultlib
INFO: [VRFC 10-311] analyzing module tb_rv32e_compliance
Waiting for jobs to finish...
No pending jobs, compilation finished.
INFO: [USF-XSim-69] 'compile' step finished in '1' seconds
INFO: [USF-XSim-3] XSim::Elaborate design
INFO: [USF-XSim-61] Executing 'ELABORATE' step in '/home/hosung/Ho/MPW/MPW_workspace/Bit_Up/A_MCU/testbench/7_testbench_rv32i_compliance/sim/sim_workspace/sim_project.sim/sim_1/behav/xsim'
xelab --incr --debug typical --relax --mt 8 -L xil_defaultlib -L unisims_ver -L unimacro_ver -L secureip --snapshot tb_rv32e_compliance_behav xil_defaultlib.tb_rv32e_compliance -log elaborate.log
Vivado Simulator v2024.2.0
Copyright 1986-2022 Xilinx, Inc. All Rights Reserved.
Copyright 2022-2024 Advanced Micro Devices, Inc. All Rights Reserved.
Running: /home/hosung/tools/xilinx/Vivado/2024.2/bin/unwrapped/lnx64.o/xelab --incr --debug typical --relax --mt 8 -L xil_defaultlib -L unisims_ver -L unimacro_ver -L secureip --snapshot tb_rv32e_compliance_behav xil_defaultlib.tb_rv32e_compliance -log elaborate.log 
Using 8 slave threads.
Starting static elaboration
Pass Through NonSizing Optimizer
Completed static elaboration
Starting simulation data flow analysis
WARNING: [XSIM 43-4099] "/home/hosung/Ho/MPW/MPW_workspace/Bit_Up/A_MCU/src/rtl/my_mcu_top.v" Line 4. Module my_mcu_top(RV32E_MODE=1,STREAM_RS2_READ=1,SHARED_SERIAL=1,UNIFIED_SERIAL=1) doesn't have a timescale but at least one module in design has a timescale.
WARNING: [XSIM 43-4099] "/home/hosung/Ho/MPW/MPW_workspace/Bit_Up/A_MCU/src/rtl/serv/serv_top.v" Line 9. Module serv_top(WITH_CSR=0,PRE_REGISTER=1'b1) doesn't have a timescale but at least one module in design has a timescale.
WARNING: [XSIM 43-4099] "/home/hosung/Ho/MPW/MPW_workspace/Bit_Up/A_MCU/src/rtl/serv/serv_state.v" Line 7. Module serv_state(WITH_CSR=1'b0,ALIGN=1'b0,MDU=1'b0) doesn't have a timescale but at least one module in design has a timescale.
WARNING: [XSIM 43-4099] "/home/hosung/Ho/MPW/MPW_workspace/Bit_Up/A_MCU/src/rtl/serv/serv_decode.v" Line 8. Module serv_decode(PRE_REGISTER=1'b1,WITH_MEM=1'b1,WORD_MEM_ONLY=1'b0,STORE_ONLY_MEM=1'b0,MDU=1'b0) doesn't have a timescale but at least one module in design has a timescale.
WARNING: [XSIM 43-4099] "/home/hosung/Ho/MPW/MPW_workspace/Bit_Up/A_MCU/src/rtl/serv/serv_immdec.v" Line 8. Module serv_immdec_default doesn't have a timescale but at least one module in design has a timescale.
WARNING: [XSIM 43-4099] "/home/hosung/Ho/MPW/MPW_workspace/Bit_Up/A_MCU/src/rtl/serv/serv_bufreg.v" Line 7. Module serv_bufreg(MDU=1'b0) doesn't have a timescale but at least one module in design has a timescale.
WARNING: [XSIM 43-4099] "/home/hosung/Ho/MPW/MPW_workspace/Bit_Up/A_MCU/src/rtl/serv/serv_bufreg2.v" Line 7. Module serv_bufreg2_default doesn't have a timescale but at least one module in design has a timescale.
WARNING: [XSIM 43-4099] "/home/hosung/Ho/MPW/MPW_workspace/Bit_Up/A_MCU/src/rtl/serv/serv_ctrl.v" Line 8. Module serv_ctrl(WITH_CSR=0) doesn't have a timescale but at least one module in design has a timescale.
WARNING: [XSIM 43-4099] "/home/hosung/Ho/MPW/MPW_workspace/Bit_Up/A_MCU/src/rtl/serv/serv_alu.v" Line 8. Module serv_alu_default doesn't have a timescale but at least one module in design has a timescale.
WARNING: [XSIM 43-4099] "/home/hosung/Ho/MPW/MPW_workspace/Bit_Up/A_MCU/src/rtl/serv/serv_rf_if.v" Line 8. Module serv_rf_if(WITH_CSR=0) doesn't have a timescale but at least one module in design has a timescale.
WARNING: [XSIM 43-4099] "/home/hosung/Ho/MPW/MPW_workspace/Bit_Up/A_MCU/src/rtl/serv/serv_mem_if.v" Line 8. Module serv_mem_if(WITH_CSR=1'b0,WORD_MEM_ONLY=1'b0) doesn't have a timescale but at least one module in design has a timescale.
WARNING: [XSIM 43-4099] "/home/hosung/Ho/MPW/MPW_workspace/Bit_Up/A_MCU/src/rtl/serv/serv_rf_ram_if.v" Line 9. Module serv_rf_ram_if(gpr_regs=16,csr_regs=0,single_read_port=1'b0,stream_rs2_read=1'b1,rf_serial_stub=1'b1) doesn't have a timescale but at least one module in design has a timescale.
WARNING: [XSIM 43-4099] "/home/hosung/Ho/MPW/MPW_workspace/Bit_Up/A_MCU/src/rtl/offchip_mem_bridge.v" Line 17. Module offchip_mem_bridge(ENABLE_RF_PORT=1,RF_RAW=4,UNIFIED_SERIAL=1) doesn't have a timescale but at least one module in design has a timescale.
WARNING: [XSIM 43-4099] "/home/hosung/Ho/MPW/MPW_workspace/Bit_Up/A_MCU/src/rtl/my_mcu_top.v" Line 4. Module my_mcu_top(RV32E_MODE=1,STREAM_RS2_READ=1,SHARED_SERIAL=1,UNIFIED_SERIAL=1) doesn't have a timescale but at least one module in design has a timescale.
WARNING: [XSIM 43-4099] "/home/hosung/Ho/MPW/MPW_workspace/Bit_Up/A_MCU/src/rtl/serv/serv_top.v" Line 9. Module serv_top(WITH_CSR=0,PRE_REGISTER=1'b1) doesn't have a timescale but at least one module in design has a timescale.
WARNING: [XSIM 43-4099] "/home/hosung/Ho/MPW/MPW_workspace/Bit_Up/A_MCU/src/rtl/serv/serv_state.v" Line 7. Module serv_state(WITH_CSR=1'b0,ALIGN=1'b0,MDU=1'b0) doesn't have a timescale but at least one module in design has a timescale.
WARNING: [XSIM 43-4099] "/home/hosung/Ho/MPW/MPW_workspace/Bit_Up/A_MCU/src/rtl/serv/serv_decode.v" Line 8. Module serv_decode(PRE_REGISTER=1'b1,WITH_MEM=1'b1,WORD_MEM_ONLY=1'b0,STORE_ONLY_MEM=1'b0,MDU=1'b0) doesn't have a timescale but at least one module in design has a timescale.
WARNING: [XSIM 43-4099] "/home/hosung/Ho/MPW/MPW_workspace/Bit_Up/A_MCU/src/rtl/serv/serv_immdec.v" Line 8. Module serv_immdec_default doesn't have a timescale but at least one module in design has a timescale.
WARNING: [XSIM 43-4099] "/home/hosung/Ho/MPW/MPW_workspace/Bit_Up/A_MCU/src/rtl/serv/serv_bufreg.v" Line 7. Module serv_bufreg(MDU=1'b0) doesn't have a timescale but at least one module in design has a timescale.
WARNING: [XSIM 43-4099] "/home/hosung/Ho/MPW/MPW_workspace/Bit_Up/A_MCU/src/rtl/serv/serv_bufreg2.v" Line 7. Module serv_bufreg2_default doesn't have a timescale but at least one module in design has a timescale.
WARNING: [XSIM 43-4099] "/home/hosung/Ho/MPW/MPW_workspace/Bit_Up/A_MCU/src/rtl/serv/serv_ctrl.v" Line 8. Module serv_ctrl(WITH_CSR=0) doesn't have a timescale but at least one module in design has a timescale.
WARNING: [XSIM 43-4099] "/home/hosung/Ho/MPW/MPW_workspace/Bit_Up/A_MCU/src/rtl/serv/serv_alu.v" Line 8. Module serv_alu_default doesn't have a timescale but at least one module in design has a timescale.
WARNING: [XSIM 43-4099] "/home/hosung/Ho/MPW/MPW_workspace/Bit_Up/A_MCU/src/rtl/serv/serv_rf_if.v" Line 8. Module serv_rf_if(WITH_CSR=0) doesn't have a timescale but at least one module in design has a timescale.
WARNING: [XSIM 43-4099] "/home/hosung/Ho/MPW/MPW_workspace/Bit_Up/A_MCU/src/rtl/serv/serv_mem_if.v" Line 8. Module serv_mem_if(WITH_CSR=1'b0,WORD_MEM_ONLY=1'b0) doesn't have a timescale but at least one module in design has a timescale.
WARNING: [XSIM 43-4099] "/home/hosung/Ho/MPW/MPW_workspace/Bit_Up/A_MCU/src/rtl/serv/serv_rf_ram_if.v" Line 9. Module serv_rf_ram_if(gpr_regs=16,csr_regs=0,single_read_port=1'b0,stream_rs2_read=1'b1,rf_serial_stub=1'b1) doesn't have a timescale but at least one module in design has a timescale.
WARNING: [XSIM 43-4099] "/home/hosung/Ho/MPW/MPW_workspace/Bit_Up/A_MCU/src/rtl/offchip_mem_bridge.v" Line 17. Module offchip_mem_bridge(ENABLE_RF_PORT=1,RF_RAW=4,UNIFIED_SERIAL=1) doesn't have a timescale but at least one module in design has a timescale.
Completed simulation data flow analysis
Time Resolution for simulation is 1ps
Compiling module xil_defaultlib.serv_state(WITH_CSR=1'b0,ALIGN=1...
Compiling module xil_defaultlib.serv_decode(PRE_REGISTER=1'b1,WI...
Compiling module xil_defaultlib.serv_immdec_default
Compiling module xil_defaultlib.serv_bufreg(MDU=1'b0)
Compiling module xil_defaultlib.serv_bufreg2_default
Compiling module xil_defaultlib.serv_ctrl(WITH_CSR=0)
Compiling module xil_defaultlib.serv_alu_default
Compiling module xil_defaultlib.serv_rf_if(WITH_CSR=0)
Compiling module xil_defaultlib.serv_mem_if(WITH_CSR=1'b0,WORD_M...
Compiling module xil_defaultlib.serv_top(WITH_CSR=0,PRE_REGISTER...
Compiling module xil_defaultlib.serv_rf_ram_if(gpr_regs=16,csr_r...
Compiling module xil_defaultlib.offchip_mem_bridge(ENABLE_RF_POR...
Compiling module xil_defaultlib.my_mcu_top(RV32E_MODE=1,STREAM_R...
Compiling module xil_defaultlib.tb_rv32e_compliance
Built simulation snapshot tb_rv32e_compliance_behav
INFO: [USF-XSim-69] 'elaborate' step finished in '5' seconds
INFO: [USF-XSim-4] XSim::Simulate design
INFO: [USF-XSim-61] Executing 'SIMULATE' step in '/home/hosung/Ho/MPW/MPW_workspace/Bit_Up/A_MCU/testbench/7_testbench_rv32i_compliance/sim/sim_workspace/sim_project.sim/sim_1/behav/xsim'
INFO: [USF-XSim-98] *** Running xsim
   with args "tb_rv32e_compliance_behav -key {Behavioral:sim_1:Functional:tb_rv32e_compliance} -tclbatch {tb_rv32e_compliance.tcl} -log {simulate.log}"
INFO: [USF-XSim-8] Loading simulator feature
Time resolution is 1 ps
source tb_rv32e_compliance.tcl
Loading external hex from generated directory
TB_PC: 00000000 TIME:             28969000
[RF_IF] LATCH TIME:                28969, i_rreg0= 0, i_rreg1=12, i_stream_rs2_en=0
[SYS_CLK] TIME:               190969, PC: 000000e0, ack: 0, inst: 00000000, rreq: 0, wreq: 0, ready: 0
    [TB_MON] rf_if_i_rreq=0, rf_if_i_rreg0= 0, rf_if_rreg0_latched= 0, has_fetched_first_insn=1
TB_PC: 0000001c TIME:            202969000
[RF_IF] LATCH TIME:               202969, i_rreg0= 0, i_rreg1= 0, i_stream_rs2_en=0
[SYS_CLK] TIME:               300969, PC: 00000100, ack: 0, inst: 00000000, rreq: 0, wreq: 0, ready: 0
    [TB_MON] rf_if_i_rreq=0, rf_if_i_rreg0= 0, rf_if_rreg0_latched= 0, has_fetched_first_insn=1
TB_PC: 00000020 TIME:            312969000
[RF_IF] LATCH TIME:               312969, i_rreg0= 0, i_rreg1= 0, i_stream_rs2_en=0
TB_PC: 00000024 TIME:            422969000
[RF_IF] LATCH TIME:               422969, i_rreg0= 0, i_rreg1= 0, i_stream_rs2_en=0
TB_PC: 00000028 TIME:            532969000
[RF_IF] LATCH TIME:               532969, i_rreg0= 0, i_rreg1= 0, i_stream_rs2_en=0
TB_PC: 0000002c TIME:            642969000
[RF_IF] LATCH TIME:               642969, i_rreg0= 0, i_rreg1= 0, i_stream_rs2_en=0
TB_PC: 00000030 TIME:            752969000
[RF_IF] LATCH TIME:               752969, i_rreg0= 0, i_rreg1= 0, i_stream_rs2_en=0
TB_PC: 00000034 TIME:            862969000
[RF_IF] LATCH TIME:               862969, i_rreg0= 0, i_rreg1= 0, i_stream_rs2_en=0
[SYS_CLK] TIME:               962969, PC: 000000e0, ack: 0, inst: 00000000, rreq: 0, wreq: 0, ready: 0
    [TB_MON] rf_if_i_rreq=0, rf_if_i_rreg0= 0, rf_if_rreg0_latched= 0, has_fetched_first_insn=1
TB_PC: 00000038 TIME:            972969000
[RF_IF] LATCH TIME:               972969, i_rreg0= 0, i_rreg1= 0, i_stream_rs2_en=0
[SYS_CLK] TIME:              1072969, PC: 000000f0, ack: 0, inst: 00000000, rreq: 0, wreq: 0, ready: 0
    [TB_MON] rf_if_i_rreq=0, rf_if_i_rreg0= 0, rf_if_rreg0_latched= 0, has_fetched_first_insn=1
TB_PC: 0000003c TIME:           1082969000
[RF_IF] LATCH TIME:              1082969, i_rreg0= 0, i_rreg1= 0, i_stream_rs2_en=0
[SYS_CLK] TIME:              1182969, PC: 00000100, ack: 0, inst: 00000000, rreq: 0, wreq: 0, ready: 0
    [TB_MON] rf_if_i_rreq=0, rf_if_i_rreg0= 0, rf_if_rreg0_latched= 0, has_fetched_first_insn=1
TB_PC: 00000040 TIME:           1192969000
[RF_IF] LATCH TIME:              1192969, i_rreg0= 0, i_rreg1= 0, i_stream_rs2_en=0
[SYS_CLK] TIME:              1292969, PC: 00000110, ack: 0, inst: 00000000, rreq: 0, wreq: 0, ready: 0
    [TB_MON] rf_if_i_rreq=0, rf_if_i_rreg0= 0, rf_if_rreg0_latched= 0, has_fetched_first_insn=1
TB_PC: 00000044 TIME:           1302969000
[RF_IF] LATCH TIME:              1302969, i_rreg0= 0, i_rreg1= 0, i_stream_rs2_en=0
TB_PC: 00000048 TIME:           1412969000
[RF_IF] LATCH TIME:              1412969, i_rreg0= 0, i_rreg1= 0, i_stream_rs2_en=0
TB_PC: 0000004c TIME:           1522969000
[RF_IF] LATCH TIME:              1522969, i_rreg0= 0, i_rreg1= 0, i_stream_rs2_en=0
TB_PC: 00000050 TIME:           1632969000
[RF_IF] LATCH TIME:              1632969, i_rreg0= 0, i_rreg1= 0, i_stream_rs2_en=0
TB_PC: 00000054 TIME:           1742969000
[RF_IF] LATCH TIME:              1742969, i_rreg0= 0, i_rreg1= 0, i_stream_rs2_en=0
TB_PC: 00000058 TIME:           1852969000
[RF_IF] LATCH TIME:              1852969, i_rreg0= 0, i_rreg1= 0, i_stream_rs2_en=0
TB_PC: 0000005c TIME:           1962969000
[RF_IF] LATCH TIME:              1962969, i_rreg0= 0, i_rreg1= 4, i_stream_rs2_en=0
TB_PC: 00000060 TIME:           2136969000
[RF_IF] LATCH TIME:              2136969, i_rreg0= 0, i_rreg1= 2, i_stream_rs2_en=0
TB_PC: 00000064 TIME:           2246969000
[RF_IF] LATCH TIME:              2246969, i_rreg0= 0, i_rreg1= 0, i_stream_rs2_en=0
TB_PC: 00000068 TIME:           2356969000
[RF_IF] LATCH TIME:              2356969, i_rreg0= 0, i_rreg1= 0, i_stream_rs2_en=0
TB_PC: 0000006c TIME:           2466969000
[RF_IF] LATCH TIME:              2466969, i_rreg0=11, i_rreg1=12, i_stream_rs2_en=1
[SYS_CLK] TIME:              2570969, PC: 000000e0, ack: 0, inst: 00000000, rreq: 0, wreq: 0, ready: 0
    [TB_MON] rf_if_i_rreq=0, rf_if_i_rreg0=11, rf_if_rreg0_latched=11, has_fetched_first_insn=1
TB_PC: 00000070 TIME:           2580969000
[RF_IF] LATCH TIME:              2580969, i_rreg0= 0, i_rreg1= 0, i_stream_rs2_en=0
[SYS_CLK] TIME:              2682969, PC: 000000e8, ack: 0, inst: 00000000, rreq: 0, wreq: 0, ready: 0
    [TB_MON] rf_if_i_rreq=0, rf_if_i_rreg0= 0, rf_if_rreg0_latched= 0, has_fetched_first_insn=1
TB_PC: 00000074 TIME:           2690969000
[RF_IF] LATCH TIME:              2690969, i_rreg0=14, i_rreg1= 7, i_stream_rs2_en=1
[SYS_CLK] TIME:              2858969, PC: 000000f0, ack: 0, inst: 00000000, rreq: 0, wreq: 0, ready: 0
    [TB_MON] rf_if_i_rreq=0, rf_if_i_rreg0=14, rf_if_rreg0_latched=14, has_fetched_first_insn=1
TB_PC: 00000078 TIME:           2866969000
[RF_IF] LATCH TIME:              2866969, i_rreg0= 0, i_rreg1= 3, i_stream_rs2_en=0
[SYS_CLK] TIME:              2968969, PC: 000000f8, ack: 0, inst: 00000000, rreq: 0, wreq: 0, ready: 0
    [TB_MON] rf_if_i_rreq=0, rf_if_i_rreg0= 0, rf_if_rreg0_latched= 0, has_fetched_first_insn=1
TB_PC: 0000007c TIME:           2976969000
[RF_IF] LATCH TIME:              2976969, i_rreg0= 0, i_rreg1= 1, i_stream_rs2_en=0
[SYS_CLK] TIME:              3078969, PC: 00000100, ack: 0, inst: 00000000, rreq: 0, wreq: 0, ready: 0
    [TB_MON] rf_if_i_rreq=0, rf_if_i_rreg0= 0, rf_if_rreg0_latched= 0, has_fetched_first_insn=1
TB_PC: 00000080 TIME:           3086969000
[RF_IF] LATCH TIME:              3086969, i_rreg0= 0, i_rreg1= 1, i_stream_rs2_en=0
[SYS_CLK] TIME:              3188969, PC: 00000108, ack: 0, inst: 00000000, rreq: 0, wreq: 0, ready: 0
    [TB_MON] rf_if_i_rreq=0, rf_if_i_rreg0= 0, rf_if_rreg0_latched= 0, has_fetched_first_insn=1
TB_PC: 00000084 TIME:           3196969000
[RF_IF] LATCH TIME:              3196969, i_rreg0=11, i_rreg1=12, i_stream_rs2_en=1
[SYS_CLK] TIME:              3300969, PC: 00000110, ack: 0, inst: 00000000, rreq: 0, wreq: 0, ready: 0
    [TB_MON] rf_if_i_rreq=0, rf_if_i_rreg0=11, rf_if_rreg0_latched=11, has_fetched_first_insn=1
TB_PC: 00000088 TIME:           3310969000
[RF_IF] LATCH TIME:              3310969, i_rreg0= 0, i_rreg1= 2, i_stream_rs2_en=0
[SYS_CLK] TIME:              3412969, PC: 00000118, ack: 0, inst: 00000000, rreq: 0, wreq: 0, ready: 0
    [TB_MON] rf_if_i_rreq=0, rf_if_i_rreg0= 0, rf_if_rreg0_latched= 0, has_fetched_first_insn=1
TB_PC: 0000008c TIME:           3420969000
[RF_IF] LATCH TIME:              3420969, i_rreg0=14, i_rreg1= 7, i_stream_rs2_en=1
TB_PC: 00000090 TIME:           3596969000
[RF_IF] LATCH TIME:              3596969, i_rreg0= 0, i_rreg1= 4, i_stream_rs2_en=0
TB_PC: 00000094 TIME:           3706969000
[RF_IF] LATCH TIME:              3706969, i_rreg0= 0, i_rreg1= 3, i_stream_rs2_en=0
TB_PC: 00000098 TIME:           3816969000
[RF_IF] LATCH TIME:              3816969, i_rreg0= 0, i_rreg1= 7, i_stream_rs2_en=0
TB_PC: 0000009c TIME:           3926969000
[RF_IF] LATCH TIME:              3926969, i_rreg0=11, i_rreg1=12, i_stream_rs2_en=1
TB_PC: 000000a0 TIME:           4040969000
[RF_IF] LATCH TIME:              4040969, i_rreg0= 0, i_rreg1=10, i_stream_rs2_en=0
TB_PC: 000000a4 TIME:           4150969000
[RF_IF] LATCH TIME:              4150969, i_rreg0=14, i_rreg1= 7, i_stream_rs2_en=1
TB_PC: 000000a8 TIME:           4326969000
[RF_IF] LATCH TIME:              4326969, i_rreg0= 0, i_rreg1= 5, i_stream_rs2_en=0
TB_PC: 000000ac TIME:           4436969000
[RF_IF] LATCH TIME:              4436969, i_rreg0= 0, i_rreg1= 0, i_stream_rs2_en=0
TB_PC: 000000b0 TIME:           4546969000
[RF_IF] LATCH TIME:              4546969, i_rreg0=15, i_rreg1=15, i_stream_rs2_en=0
TB_PC: 000000b4 TIME:           4656969000
[RF_IF] LATCH TIME:              4656969, i_rreg0=11, i_rreg1=12, i_stream_rs2_en=1
TB_PC: 000000b8 TIME:           4770969000
[RF_IF] LATCH TIME:              4770969, i_rreg0=15, i_rreg1=15, i_stream_rs2_en=0
TB_PC: 000000bc TIME:           4880969000
[RF_IF] LATCH TIME:              4880969, i_rreg0=14, i_rreg1= 7, i_stream_rs2_en=1
TB_PC: 000000c0 TIME:           5056969000
[RF_IF] LATCH TIME:              5056969, i_rreg0= 0, i_rreg1= 6, i_stream_rs2_en=0
TB_PC: 000000c4 TIME:           5166969000
[RF_IF] LATCH TIME:              5166969, i_rreg0= 0, i_rreg1= 0, i_stream_rs2_en=0
TB_PC: 000000c8 TIME:           5276969000
[RF_IF] LATCH TIME:              5276969, i_rreg0= 0, i_rreg1= 0, i_stream_rs2_en=0
TB_PC: 000000cc TIME:           5386969000
[RF_IF] LATCH TIME:              5386969, i_rreg0=11, i_rreg1=12, i_stream_rs2_en=1
TB_PC: 000000d0 TIME:           5500969000
[RF_IF] LATCH TIME:              5500969, i_rreg0= 0, i_rreg1= 0, i_stream_rs2_en=0
TB_PC: 000000d4 TIME:           5610969000
[RF_IF] LATCH TIME:              5610969, i_rreg0=14, i_rreg1= 7, i_stream_rs2_en=1
TB_PC: 000000d8 TIME:           5786969000
[RF_IF] LATCH TIME:              5786969, i_rreg0= 0, i_rreg1= 7, i_stream_rs2_en=0
TB_PC: 000000dc TIME:           5896969000
[RF_IF] LATCH TIME:              5896969, i_rreg0= 0, i_rreg1= 0, i_stream_rs2_en=0
[SYS_CLK] TIME:              6000969, PC: 000000e0, ack: 0, inst: 00000000, rreq: 0, wreq: 0, ready: 0
    [TB_MON] rf_if_i_rreq=0, rf_if_i_rreg0= 0, rf_if_rreg0_latched= 0, has_fetched_first_insn=1
[SYS_CLK] TIME:              6002969, PC: 000000e0, ack: 0, inst: 00000000, rreq: 0, wreq: 0, ready: 0
    [TB_MON] rf_if_i_rreq=0, rf_if_i_rreg0= 0, rf_if_rreg0_latched= 0, has_fetched_first_insn=1
[SYS_CLK] TIME:              6004969, PC: 000000e0, ack: 0, inst: 03fffe18, rreq: 0, wreq: 0, ready: 0
    [TB_MON] rf_if_i_rreq=0, rf_if_i_rreg0= 0, rf_if_rreg0_latched= 0, has_fetched_first_insn=1
TB_PC: 000000e0 TIME:           6006969000
[RF_IF] LATCH TIME:              6006969, i_rreg0=15, i_rreg1=15, i_stream_rs2_en=0
[SYS_CLK] TIME:              6006969, PC: 000000e0, ack: 1, inst: ffff8637, rreq: 1, wreq: 0, ready: 0
    [TB_MON] rf_if_i_rreq=1, rf_if_i_rreg0=15, rf_if_rreg0_latched= 0, has_fetched_first_insn=1
    READ: rreg0= 0 (rdata0=00), rreg1=0 (rdata1=0)
[SYS_CLK] TIME:              6008969, PC: 000000e0, ack: 0, inst: ffff8637, rreq: 0, wreq: 0, ready: 0
    [TB_MON] rf_if_i_rreq=0, rf_if_i_rreg0=15, rf_if_rreg0_latched=15, has_fetched_first_insn=1
[SYS_CLK] TIME:              6010969, PC: 000000e0, ack: 0, inst: ffff8637, rreq: 0, wreq: 0, ready: 0
    [TB_MON] rf_if_i_rreq=0, rf_if_i_rreg0=15, rf_if_rreg0_latched=15, has_fetched_first_insn=1
[SYS_CLK] TIME:              6012969, PC: 000000e0, ack: 0, inst: 00000000, rreq: 0, wreq: 0, ready: 0
    [TB_MON] rf_if_i_rreq=0, rf_if_i_rreg0=15, rf_if_rreg0_latched=15, has_fetched_first_insn=1
[SYS_CLK] TIME:              6014969, PC: 000000e0, ack: 0, inst: 00000000, rreq: 0, wreq: 0, ready: 0
    [TB_MON] rf_if_i_rreq=0, rf_if_i_rreg0=15, rf_if_rreg0_latched=15, has_fetched_first_insn=1
[SYS_CLK] TIME:              6016969, PC: 000000e0, ack: 0, inst: 00000000, rreq: 0, wreq: 0, ready: 0
    [TB_MON] rf_if_i_rreq=0, rf_if_i_rreg0=15, rf_if_rreg0_latched=15, has_fetched_first_insn=1
[SYS_CLK] TIME:              6018969, PC: 000000e0, ack: 0, inst: 00000000, rreq: 0, wreq: 0, ready: 0
    [TB_MON] rf_if_i_rreq=0, rf_if_i_rreg0=15, rf_if_rreg0_latched=15, has_fetched_first_insn=1
[SYS_CLK] TIME:              6020969, PC: 000000e0, ack: 0, inst: 00000000, rreq: 0, wreq: 0, ready: 0
